analyze
…
# Calculate the percentage change
data_long <- data_long %>%
  arrange(Course, AcademicYear) %>%
  group_by(Course) %>%
  mutate(Percent_Change = if_else(Enrollment == 0, 0, (Enrollment - lag(Enrollment, default = first(Enrollment))) / lag(Enrollment, default = first(Enrollment)) * 100)) %>%
  ungroup()

# Replace NA in Percent_Change with 0 for the first year a course is introduced
data_long$Percent_Change[is.na(data_long$Percent_Change)] <- 0

# View the result
print(data_long)

# A tibble: 101 × 4
   Course      AcademicYear Enrollment Percent_Change
   <chr>       <chr>             <dbl>          <dbl>
 1 COMPSCI 101 AY20-21             433           0   
 2 COMPSCI 101 AY21-22             478          10.4 
 3 COMPSCI 101 AY22-23             478           0   
 4 COMPSCI 101 AY23-24             433          -9.41
 5 COMPSCI 201 AY20-21             787           0   
 6 COMPSCI 201 AY21-22             583         -25.9 
 7 COMPSCI 201 AY22-23             613           5.15
 8 COMPSCI 201 AY23-24             684          11.6 
 9 COMPSCI 210 AY21-22             253           0   
10 COMPSCI 210 AY22-23             335          32.4 
# ℹ 91 more rows
…
